{
    "userLoginInit": "http://40.80.88.4:10822/sso/OTPServer/userLogin-initiation",
    "userLogin": "http://40.80.88.4:10822/sso/OTPServer/userLogin",
    "categories-master": "http://52.186.141.19:8077/masters/categories-master",
    "billers": "http://52.186.141.19:8077/masters/billers",
    "customerParam": "http://52.186.141.19:8077/masters/customerParam"
}